<?xml version="1.0" encoding="utf-8"?>
<!-- Generator: Adobe Illustrator 16.0.0, SVG Export Plug-In . SVG Version: 6.00 Build 0)  -->
<!DOCTYPE svg PUBLIC "-//W3C//DTD SVG 1.1//EN" "http://www.w3.org/Graphics/SVG/1.1/DTD/svg11.dtd">
<svg version="1.1" id="Layer_1" xmlns="http://www.w3.org/2000/svg" xmlns:xlink="http://www.w3.org/1999/xlink" x="0px" y="0px"
	 width="189.604px" height="41.256px" viewBox="0 0 189.604 41.256" enable-background="new 0 0 189.604 41.256"
	 xml:space="preserve">
<g>
	<path fill="#555555" d="M0,35.912v-0.518c0-3.332,1.15-4.539,3.046-6.607l14.135-16.031H5.517c-3.334,0-5.056-1.206-5.056-4.48
		V7.757c0-3.159,1.722-4.481,5.056-4.481h20.799c4.195,0,5.861,2.241,5.861,4.481v0.575c0,3.275-1.207,4.597-3.045,6.551
		L14.71,30.912h12.755c3.333,0,5.058,1.265,5.058,4.54v0.46c0,3.16-1.725,4.539-5.058,4.539H5.804C1.667,40.451,0,38.152,0,35.912z"
		/>
	<path fill="#555555" d="M34.128,26.546c0-8.733,6.379-15.169,15.17-15.169c8.732,0,14.824,5.977,14.824,14.192v0.689
		c-0.058,1.666-0.574,2.873-2.24,2.873H43.896c0.689,2.987,3.103,4.481,6.608,4.481c3.447,0,5.804-1.666,6.895-3.619
		c0-0.115,5.057,0.401,5.057,4.596c0,3.793-4.426,6.666-12.468,6.666C40.276,41.256,34.128,35.682,34.128,26.546z M43.724,23.443
		h10.459c-0.059-2.93-1.953-4.884-5-4.884C46.31,18.56,44.069,20.628,43.724,23.443z"/>
	<path fill="#555555" d="M78.312,16.721c1.093-3.218,3.448-5.344,6.896-5.344c3.678,0,6.033,2.299,6.033,5.918
		c0,4.425-3.506,5.918-3.621,5.804c-0.92-0.862-2.355-1.494-3.965-1.494c-3.275,0-4.883,2.356-4.883,7.01v6.78
		c0,4.022-2.068,5.344-4.885,5.344h-1.148c-2.931,0-5-1.264-5-5.344V12.929c0-0.401,2.013-1.265,4.252-1.265
		C74.521,11.664,77.335,12.756,78.312,16.721z"/>
	<path fill="#555555" d="M112.729,16.605c1.206-3.906,3.448-5.056,5.631-5.056c3.218,0,6.263,2.643,5.976,3.218l-9.998,23.5
		c-0.919,2.068-3.964,2.529-5.803,2.529c-1.84,0-4.941-0.403-5.861-2.529l-10.17-23.5c-0.23-0.575,2.93-3.218,6.092-3.218
		c2.355,0,4.596,1.149,5.803,5.056l4.079,13.273L112.729,16.605z"/>
	<path fill="#555555" d="M124.909,26.546c0-8.733,6.377-15.169,15.168-15.169c8.734,0,14.825,5.977,14.825,14.192v0.689
		c-0.058,1.666-0.575,2.873-2.242,2.873h-17.983c0.688,2.987,3.102,4.481,6.607,4.481c3.447,0,5.803-1.666,6.895-3.619
		c0-0.115,5.057,0.401,5.057,4.596c0,3.793-4.424,6.666-12.469,6.666C131.057,41.256,124.909,35.682,124.909,26.546z
		 M134.503,23.443h10.459c-0.058-2.93-1.954-4.884-4.999-4.884C137.091,18.56,134.849,20.628,134.503,23.443z"/>
	<path fill="#555555" d="M157.255,26.259c0-9.136,5.172-14.882,13.102-14.882c3.562,0,6.607,1.609,8.273,3.907V1.266
		c0-0.403,1.954-1.266,4.193-1.266c3.161,0,6.781,1.667,6.781,8.389v27.006c0,3.965-2.011,5.344-4.826,5.344h-1.149
		c-2.759,0-4.769-1.148-4.999-4.711c-1.438,3.217-4.539,5.229-8.389,5.229C162.427,41.256,157.255,35.107,157.255,26.259z
		 M178.63,27.695v-4.482c-0.918-2.01-2.7-3.274-5.172-3.274c-3.446,0-5.745,2.413-5.745,6.378c0,3.793,2.299,6.378,5.631,6.378
		C176.389,32.694,178.63,30.799,178.63,27.695z"/>
</g>
</svg>
