[
    {
      "element": "input[name='name']",
      "intro": "{% trans %}Type the name of your menu card and click Next.{% endtrans %}",
      "position": "right"
    },
    {
      "element": "#select_schedule",
      "intro": "{% trans %}Select a schedule or choose to create a new one. Click Next to continue.{% endtrans %}",
      "position": "right"
    },
    {
      "element": "#bars",
      "intro": "{% trans %}Select the bars in which you want to have this menu card. Click Next to continue.{% endtrans %}",
      "position": "top"
    },
    {
      "element": "#products",
      "intro": "{% trans %}Select the products that should appear in this menu card, then click Next.{% endtrans %}",
      "position": "top"
    },
    {
      "element": ".form-actions button:first-child",
      "intro": "{% trans %}Save this menu card.{% endtrans %}",
      "position": "top"
    }
]
